数电/实验报告/EDA1/simulation/qsim/EDA1.msim.vcd
$comment
	File created using the following command:
		vcd file EDA1.msim.vcd -direction
$end
$date
	Sun Dec 12 14:02:30 2021
$end
$version
	ModelSim Version 10.1d
$end
$timescale
	1ps
$end
$scope module Block1_vlg_vec_tst $end
$var reg 4 ! a [3:0] $end
$var reg 4 " b [3:0] $end
$var reg 1 # clk $end
$var reg 3 $ k [2:0] $end
$var wire 1 % en [5] $end
$var wire 1 & en [4] $end
$var wire 1 ' en [3] $end
$var wire 1 ( en [2] $end
$var wire 1 ) en [1] $end
$var wire 1 * en [0] $end
$var wire 1 + led $end
$var wire 1 , light [6] $end
$var wire 1 - light [5] $end
$var wire 1 . light [4] $end
$var wire 1 / light [3] $end
$var wire 1 0 light [2] $end
$var wire 1 1 light [1] $end
$var wire 1 2 light [0] $end
$scope module i1 $end
$var wire 1 3 gnd $end
$var wire 1 4 vcc $end
$var wire 1 5 unknown $end
$var tri1 1 6 devclrn $end
$var tri1 1 7 devpor $end
$var tri1 1 8 devoe $end
$var wire 1 9 inst|Add1~0_combout $end
$var wire 1 : inst|Add1~4_combout $end
$var wire 1 ; inst|Add1~6_combout $end
$var wire 1 < inst|Mult0|auto_generated|op_1~0_combout $end
$var wire 1 = inst|Mult0|auto_generated|op_1~2_combout $end
$var wire 1 > inst|Mult0|auto_generated|op_1~4_combout $end
$var wire 1 ? inst|Mult0|auto_generated|op_3~0_combout $end
$var wire 1 @ inst|Mult0|auto_generated|op_3~8_combout $end
$var wire 1 A inst|Add0~0_combout $end
$var wire 1 B inst|Add0~7 $end
$var wire 1 C inst|Add0~8_combout $end
$var wire 1 D inst|Div0|auto_generated|divider|divider|add_sub_2_result_int[0]~0_combout $end
$var wire 1 E inst|Div0|auto_generated|divider|divider|add_sub_2_result_int[1]~2_combout $end
$var wire 1 F inst|Div0|auto_generated|divider|divider|add_sub_2_result_int[2]~4_combout $end
$var wire 1 G inst|Div0|auto_generated|divider|divider|add_sub_3_result_int[0]~1_cout $end
$var wire 1 H inst|Div0|auto_generated|divider|divider|add_sub_3_result_int[1]~3_cout $end
$var wire 1 I inst|Div0|auto_generated|divider|divider|add_sub_3_result_int[2]~5_cout $end
$var wire 1 J inst|Div0|auto_generated|divider|divider|add_sub_3_result_int[3]~7_cout $end
$var wire 1 K inst|Div0|auto_generated|divider|divider|add_sub_3_result_int[4]~8_combout $end
$var wire 1 L inst|Add2~3_combout $end
$var wire 1 M inst|Add2~5_combout $end
$var wire 1 N inst|Add2~7_combout $end
$var wire 1 O inst|Add2~9_combout $end
$var wire 1 P inst|cnt0[0]~13_combout $end
$var wire 1 Q inst|cnt0[0]~14 $end
$var wire 1 R inst|cnt0[1]~15_combout $end
$var wire 1 S inst|cnt0[1]~16 $end
$var wire 1 T inst|cnt0[2]~17_combout $end
$var wire 1 U inst|cnt0[2]~18 $end
$var wire 1 V inst|cnt0[3]~19_combout $end
$var wire 1 W inst|cnt0[3]~20 $end
$var wire 1 X inst|cnt0[4]~21_combout $end
$var wire 1 Y inst|cnt0[4]~22 $end
$var wire 1 Z inst|cnt0[5]~23_combout $end
$var wire 1 [ inst|cnt0[5]~24 $end
$var wire 1 \ inst|cnt0[6]~25_combout $end
$var wire 1 ] inst|cnt0[6]~26 $end
$var wire 1 ^ inst|cnt0[7]~27_combout $end
$var wire 1 _ inst|cnt0[7]~28 $end
$var wire 1 ` inst|cnt0[8]~29_combout $end
$var wire 1 a inst|cnt0[8]~30 $end
$var wire 1 b inst|cnt0[9]~31_combout $end
$var wire 1 c inst|cnt0[9]~32 $end
$var wire 1 d inst|cnt0[10]~33_combout $end
$var wire 1 e inst|cnt0[10]~34 $end
$var wire 1 f inst|cnt0[11]~35_combout $end
$var wire 1 g inst|cnt0[11]~36 $end
$var wire 1 h inst|cnt0[12]~37_combout $end
$var wire 1 i inst|Mux1~0_combout $end
$var wire 1 j inst|Mux1~1_combout $end
$var wire 1 k inst|Mux2~0_combout $end
$var wire 1 l inst|Mux3~0_combout $end
$var wire 1 m inst|out[4]~2_combout $end
$var wire 1 n inst|out[4]~3_combout $end
$var wire 1 o inst|Mux4~0_combout $end
$var wire 1 p inst|Mux5~4_combout $end
$var wire 1 q inst|Mux5~5_combout $end
$var wire 1 r inst|Div0|auto_generated|divider|divider|selnose[5]~2_combout $end
$var wire 1 s inst|Mux6~0_combout $end
$var wire 1 t inst|Mux6~3_combout $end
$var wire 1 u inst|Div0|auto_generated|divider|divider|StageOut[5]~0_combout $end
$var wire 1 v inst|Div0|auto_generated|divider|divider|StageOut[5]~1_combout $end
$var wire 1 w inst|Div0|auto_generated|divider|divider|StageOut[4]~2_combout $end
$var wire 1 x inst|Mux8~2_combout $end
$var wire 1 y inst|Mux8~3_combout $end
$var wire 1 z inst|Mux8~4_combout $end
$var wire 1 { inst|Div0|auto_generated|divider|divider|StageOut[10]~3_combout $end
$var wire 1 | inst|Div0|auto_generated|divider|divider|StageOut[9]~4_combout $end
$var wire 1 } inst|Div0|auto_generated|divider|divider|StageOut[8]~5_combout $end
$var wire 1 ~ inst|Mux8~5_combout $end
$var wire 1 !! inst|Mult0|auto_generated|cs2a[1]~0_combout $end
$var wire 1 "! inst|Add2~24_combout $end
$var wire 1 #! inst|Add2~30_combout $end
$var wire 1 $! inst|Add2~31_combout $end
$var wire 1 %! inst|flag~q $end
$var wire 1 &! inst|Mux17~0_combout $end
$var wire 1 '! inst|Mux17~1_combout $end
$var wire 1 (! inst|Mux17~2_combout $end
$var wire 1 )! inst|LessThan0~0_combout $end
$var wire 1 *! inst|LessThan0~1_combout $end
$var wire 1 +! inst|LessThan0~2_combout $end
$var wire 1 ,! inst|LessThan0~3_combout $end
$var wire 1 -! inst|Mux5~6_combout $end
$var wire 1 .! inst|Mux7~8_combout $end
$var wire 1 /! inst|Mux8~6_combout $end
$var wire 1 0! inst|Mux7~9_combout $end
$var wire 1 1! inst|Mux7~10_combout $end
$var wire 1 2! clk~input_o $end
$var wire 1 3! led~output_o $end
$var wire 1 4! en[5]~output_o $end
$var wire 1 5! en[4]~output_o $end
$var wire 1 6! en[3]~output_o $end
$var wire 1 7! en[2]~output_o $end
$var wire 1 8! en[1]~output_o $end
$var wire 1 9! en[0]~output_o $end
$var wire 1 :! light[6]~output_o $end
$var wire 1 ;! light[5]~output_o $end
$var wire 1 <! light[4]~output_o $end
$var wire 1 =! light[3]~output_o $end
$var wire 1 >! light[2]~output_o $end
$var wire 1 ?! light[1]~output_o $end
$var wire 1 @! light[0]~output_o $end
$var wire 1 A! k[1]~input_o $end
$var wire 1 B! k[2]~input_o $end
$var wire 1 C! k[0]~input_o $end
$var wire 1 D! inst|Mux0~0_combout $end
$var wire 1 E! a[3]~input_o $end
$var wire 1 F! a[2]~input_o $end
$var wire 1 G! a[1]~input_o $end
$var wire 1 H! a[0]~input_o $end
$var wire 1 I! inst|Add1~1 $end
$var wire 1 J! inst|Add1~3 $end
$var wire 1 K! inst|Add1~5 $end
$var wire 1 L! inst|Add1~7 $end
$var wire 1 M! inst|Add1~8_combout $end
$var wire 1 N! inst|Mux0~2_combout $end
$var wire 1 O! b[3]~input_o $end
$var wire 1 P! b[2]~input_o $end
$var wire 1 Q! b[1]~input_o $end
$var wire 1 R! inst|Mult0|auto_generated|op_1~1 $end
$var wire 1 S! inst|Mult0|auto_generated|op_1~3 $end
$var wire 1 T! inst|Mult0|auto_generated|op_1~5 $end
$var wire 1 U! inst|Mult0|auto_generated|op_1~7 $end
$var wire 1 V! inst|Mult0|auto_generated|op_1~9 $end
$var wire 1 W! inst|Mult0|auto_generated|op_1~10_combout $end
$var wire 1 X! inst|Mult0|auto_generated|op_1~8_combout $end
$var wire 1 Y! inst|Mult0|auto_generated|op_1~6_combout $end
$var wire 1 Z! b[0]~input_o $end
$var wire 1 [! inst|Mult0|auto_generated|op_3~1 $end
$var wire 1 \! inst|Mult0|auto_generated|op_3~3 $end
$var wire 1 ]! inst|Mult0|auto_generated|op_3~5 $end
$var wire 1 ^! inst|Mult0|auto_generated|op_3~7 $end
$var wire 1 _! inst|Mult0|auto_generated|op_3~9 $end
$var wire 1 `! inst|Mult0|auto_generated|op_3~11 $end
$var wire 1 a! inst|Mult0|auto_generated|op_3~13 $end
$var wire 1 b! inst|Mult0|auto_generated|op_3~14_combout $end
$var wire 1 c! inst|Add2~20_combout $end
$var wire 1 d! inst|Mult0|auto_generated|op_3~12_combout $end
$var wire 1 e! inst|Mult0|auto_generated|op_3~10_combout $end
$var wire 1 f! inst|Add2~2_cout $end
$var wire 1 g! inst|Add2~4 $end
$var wire 1 h! inst|Add2~6 $end
$var wire 1 i! inst|Add2~8 $end
$var wire 1 j! inst|Add2~10 $end
$var wire 1 k! inst|Add2~11_combout $end
$var wire 1 l! inst|Add2~23_combout $end
$var wire 1 m! inst|out[0]~4_combout $end
$var wire 1 n! inst|Mux3~1_combout $end
$var wire 1 o! inst|Add2~12 $end
$var wire 1 p! inst|Add2~13_combout $end
$var wire 1 q! inst|Add2~22_combout $end
$var wire 1 r! inst|Mux2~1_combout $end
$var wire 1 s! inst|Add2~14 $end
$var wire 1 t! inst|Add2~15_combout $end
$var wire 1 u! inst|Add2~21_combout $end
$var wire 1 v! inst|Mux1~2_combout $end
$var wire 1 w! inst|Add2~16 $end
$var wire 1 x! inst|Add2~17_combout $end
$var wire 1 y! inst|Add2~19_combout $end
$var wire 1 z! inst|Mux0~1_combout $end
$var wire 1 {! inst|cnt_sel~2_combout $end
$var wire 1 |! inst|cnt_sel~1_combout $end
$var wire 1 }! inst|cnt_sel~0_combout $end
$var wire 1 ~! inst|Mux27~0_combout $end
$var wire 1 !" inst|Mux23~0_combout $end
$var wire 1 "" inst|Mux23~1_combout $end
$var wire 1 #" inst|Mux23~2_combout $end
$var wire 1 $" inst|Mux22~0_combout $end
$var wire 1 %" inst|Div0|auto_generated|divider|divider|add_sub_2_result_int[0]~1 $end
$var wire 1 &" inst|Div0|auto_generated|divider|divider|add_sub_2_result_int[1]~3 $end
$var wire 1 '" inst|Div0|auto_generated|divider|divider|add_sub_2_result_int[2]~5 $end
$var wire 1 (" inst|Div0|auto_generated|divider|divider|add_sub_2_result_int[3]~6_combout $end
$var wire 1 )" inst|Mux7~4_combout $end
$var wire 1 *" inst|Mult0|auto_generated|op_3~2_combout $end
$var wire 1 +" inst|Add0~1 $end
$var wire 1 ," inst|Add0~2_combout $end
$var wire 1 -" inst|Mux7~6_combout $end
$var wire 1 ." inst|Add1~2_combout $end
$var wire 1 /" inst|Mux7~5_combout $end
$var wire 1 0" inst|Mux7~7_combout $end
$var wire 1 1" inst|Add2~29_combout $end
$var wire 1 2" inst|Mux18~0_combout $end
$var wire 1 3" inst|Mux18~1_combout $end
$var wire 1 4" inst|Add0~3 $end
$var wire 1 5" inst|Add0~4_combout $end
$var wire 1 6" inst|Mux6~1_combout $end
$var wire 1 7" inst|Add2~0_combout $end
$var wire 1 8" inst|Mult0|auto_generated|op_3~4_combout $end
$var wire 1 9" inst|Mux6~2_combout $end
$var wire 1 :" inst|Div0|auto_generated|divider|divider|selnose[5]~1_combout $end
$var wire 1 ;" inst|Add2~27_combout $end
$var wire 1 <" inst|Add2~28_combout $end
$var wire 1 =" inst|Mux19~0_combout $end
$var wire 1 >" inst|Mux19~1_combout $end
$var wire 1 ?" inst|Add0~5 $end
$var wire 1 @" inst|Add0~6_combout $end
$var wire 1 A" inst|Mux5~2_combout $end
$var wire 1 B" inst|Mult0|auto_generated|op_3~6_combout $end
$var wire 1 C" inst|Mux5~3_combout $end
$var wire 1 D" inst|Div0|auto_generated|divider|divider|selnose[0]~0_combout $end
$var wire 1 E" inst|Add2~25_combout $end
$var wire 1 F" inst|Add2~26_combout $end
$var wire 1 G" inst|Mux20~0_combout $end
$var wire 1 H" inst|Mux20~1_combout $end
$var wire 1 I" inst|Mux10~0_combout $end
$var wire 1 J" inst|Mux10~1_combout $end
$var wire 1 K" inst|Mux9~0_combout $end
$var wire 1 L" inst|Mux11~0_combout $end
$var wire 1 M" inst|Mux12~0_combout $end
$var wire 1 N" inst|Mux13~0_combout $end
$var wire 1 O" inst|Mux13~1_combout $end
$var wire 1 P" inst|Mux14~0_combout $end
$var wire 1 Q" inst|Mux14~1_combout $end
$var wire 1 R" inst|Mux15~0_combout $end
$var wire 1 S" inst|Mux15~1_combout $end
$var wire 1 T" inst|Mux16~0_combout $end
$var wire 1 U" inst|Mux16~1_combout $end
$var wire 1 V" inst|cnt0 [12] $end
$var wire 1 W" inst|cnt0 [11] $end
$var wire 1 X" inst|cnt0 [10] $end
$var wire 1 Y" inst|cnt0 [9] $end
$var wire 1 Z" inst|cnt0 [8] $end
$var wire 1 [" inst|cnt0 [7] $end
$var wire 1 \" inst|cnt0 [6] $end
$var wire 1 ]" inst|cnt0 [5] $end
$var wire 1 ^" inst|cnt0 [4] $end
$var wire 1 _" inst|cnt0 [3] $end
$var wire 1 `" inst|cnt0 [2] $end
$var wire 1 a" inst|cnt0 [1] $end
$var wire 1 b" inst|cnt0 [0] $end
$var wire 1 c" inst|cnt_sel [2] $end
$var wire 1 d" inst|cnt_sel [1] $end
$var wire 1 e" inst|cnt_sel [0] $end
$var wire 1 f" inst|en [5] $end
$var wire 1 g" inst|en [4] $end
$var wire 1 h" inst|en [3] $end
$var wire 1 i" inst|en [2] $end
$var wire 1 j" inst|en [1] $end
$var wire 1 k" inst|en [0] $end
$var wire 1 l" inst|Mult0|auto_generated|le3a [5] $end
$var wire 1 m" inst|Mult0|auto_generated|le3a [4] $end
$var wire 1 n" inst|Mult0|auto_generated|le3a [3] $end
$var wire 1 o" inst|Mult0|auto_generated|le3a [2] $end
$var wire 1 p" inst|Mult0|auto_generated|le3a [1] $end
$var wire 1 q" inst|Mult0|auto_generated|le3a [0] $end
$var wire 1 r" inst|Mult0|auto_generated|le4a [5] $end
$var wire 1 s" inst|Mult0|auto_generated|le4a [4] $end
$var wire 1 t" inst|Mult0|auto_generated|le4a [3] $end
$var wire 1 u" inst|Mult0|auto_generated|le4a [2] $end
$var wire 1 v" inst|Mult0|auto_generated|le4a [1] $end
$var wire 1 w" inst|Mult0|auto_generated|le4a [0] $end
$var wire 1 x" inst|Mult0|auto_generated|le5a [4] $end
$var wire 1 y" inst|Mult0|auto_generated|le5a [3] $end
$var wire 1 z" inst|Mult0|auto_generated|le5a [2] $end
$var wire 1 {" inst|Mult0|auto_generated|le5a [1] $end
$var wire 1 |" inst|Mult0|auto_generated|le5a [0] $end
$var wire 1 }" inst|data [4] $end
$var wire 1 ~" inst|data [3] $end
$var wire 1 !# inst|data [2] $end
$var wire 1 "# inst|data [1] $end
$var wire 1 ## inst|data [0] $end
$var wire 1 $# inst|out [8] $end
$var wire 1 %# inst|out [7] $end
$var wire 1 &# inst|out [6] $end
$var wire 1 '# inst|out [5] $end
$var wire 1 (# inst|out [4] $end
$var wire 1 )# inst|out [3] $end
$var wire 1 *# inst|out [2] $end
$var wire 1 +# inst|out [1] $end
$var wire 1 ,# inst|out [0] $end
$var wire 1 -# inst|light [6] $end
$var wire 1 .# inst|light [5] $end
$var wire 1 /# inst|light [4] $end
$var wire 1 0# inst|light [3] $end
$var wire 1 1# inst|light [2] $end
$var wire 1 2# inst|light [1] $end
$var wire 1 3# inst|light [0] $end
$upscope $end
$upscope $end
$enddefinitions $end
#0
$dumpvars
b0 !
b0 "
x#
b100 $
0*
1)
1(
1'
1&
1%
0+
12
01
00
0/
0.
0-
0,
03
14
x5
16
17
18
09
0:
0;
0<
0=
0>
0?
0@
0A
1B
0C
0D
0E
0F
1G
0H
1I
0J
0K
0L
0M
0N
0O
1P
0Q
0R
1S
0T
0U
0V
1W
0X
0Y
0Z
1[
0\
0]
0^
1_
0`
0a
0b
1c
0d
0e
0f
1g
0h
0i
0j
0k
0l
0m
0n
0o
0p
0q
0r
0s
0t
1u
0v
0w
0x
0y
0z
0{
0|
0}
0~
0!!
0"!
1#!
0$!
0%!
0&!
0'!
0(!
1)!
1*!
0+!
0,!
0-!
0.!
0/!
00!
01!
x2!
03!
14!
15!
16!
17!
18!
09!
0:!
0;!
0<!
0=!
0>!
0?!
1@!
0A!
1B!
0C!
0D!
0E!
0F!
0G!
0H!
1I!
0J!
1K!
0L!
0M!
0N!
0O!
0P!
0Q!
0R!
1S!
0T!
1U!
0V!
1W!
0X!
0Y!
0Z!
0[!
1\!
0]!
1^!
0_!
1`!
0a!
0b!
0c!
0d!
0e!
1f!
0g!
1h!
0i!
1j!
0k!
0l!
1m!
0n!
0o!
0p!
0q!
0r!
1s!
0t!
0u!
0v!
0w!
0x!
0y!
0z!
1{!
0|!
0}!
1~!
0!"
0""
0#"
1$"
1%"
0&"
1'"
0("
0)"
0*"
0+"
0,"
0-"
0."
0/"
00"
01"
02"
03"
14"
05"
06"
07"
08"
09"
0:"
0;"
0<"
0="
0>"
0?"
0@"
0A"
0B"
0C"
0D"
0E"
0F"
0G"
0H"
0I"
0J"
0K"
0L"
0M"
0N"
0O"
0P"
0Q"
0R"
0S"
1T"
1U"
0b"
0a"
0`"
0_"
0^"
0]"
0\"
0["
0Z"
0Y"
0X"
0W"
0V"
0e"
0d"
0c"
0k"
1j"
1i"
1h"
zg"
1f"
0q"
0p"
0o"
0n"
0m"
zl"
0w"
0v"
0u"
0t"
0s"
0r"
0|"
0{"
0z"
0y"
zx"
0##
0"#
0!#
0~"
0}"
0,#
0+#
0*#
0)#
0(#
0'#
0&#
0%#
0$#
13#
02#
01#
00#
0/#
0.#
0-#
$end
#10000
b1 !
b1 "
b101 $
1C!
1Z!
1H!
1D"
1q"
0u
1r
0%"
1D
1+"
1?
1&"
1E
1}
1,"
0'"
1F
1|
1-"
1("
1{
10"
11!
0}
0|
0{
11"
1.!
1+#
1g!
1L
12"
0h!
1M
13"
1i!
1N
1"#
0j!
1O
0T"
1R"
1M"
1o!
1k!
0U"
1S"
0s!
1p!
1/#
1w!
1t!
1<!
1.
03#
12#
1x!
0@!
1?!
02
11
#20000
b11 !
b11 "
b111 $
b10 !
b10 "
b110 $
0C!
1A!
0Z!
1Q!
0H!
1G!
1/"
0-"
1D!
10!
1i
0D"
1p"
1n"
1m"
0r
1%"
0+"
1:"
04"
1b!
1d!
1e!
1!!
1H
0E
1[!
0?
1}
00"
01!
0\!
1=
1>
1E
0,"
1r
15"
1v"
0I
0H
01"
0.!
18"
0^!
1@
1J
1I
0+#
0g!
0L
1_!
0@
1K
0J
02"
1h!
0M
0`!
0e!
0#!
0K
03"
0i!
0N
1a!
0d!
1#!
0"#
1j!
0O
0b!
1T"
0R"
0M"
0o!
0k!
1U"
0S"
1s!
0p!
0/#
0w!
0t!
0<!
0.
13#
02#
0x!
1@!
0?!
12
01
#30000
b11 !
b11 "
b111 $
1C!
1Z!
1H!
17"
0/"
1c!
0D!
00!
1D"
0q"
1o"
0p"
1u
0D
1+"
1w"
19"
0[!
1?
1<
1\!
1*"
1,"
1]!
08"
1<"
1t
0*"
1x
1-"
1B"
09"
1*#
0h!
1M
0-"
1$!
1z
10"
11!
1C"
0<"
0t
1="
0*#
1i!
1N
00"
01!
1,#
1~
11"
1.!
1F"
1q
1h!
0M
1>"
0="
0j!
1O
01"
0.!
1&!
0f!
1+#
1g!
1L
1)#
1!#
0>"
1o!
1k!
0+#
1'!
12"
0h!
1M
1G"
0U"
1P"
1N"
1I"
0!#
0s!
1p!
02"
1(!
13"
0N
1H"
1Q"
1O"
1J"
1U"
0P"
0N"
0I"
1w!
1t!
03"
1##
1"#
1~"
03#
0Q"
0O"
0J"
1x!
0"#
0U"
0T"
1L"
1I"
0@!
02
11#
10#
1-#
13#
1T"
1P"
0L"
0I"
1J"
1>!
1=!
1:!
1@!
10
1/
1,
12
01#
00#
0-#
03#
1.#
1Q"
0J"
0>!
0=!
0:!
0@!
1;!
00
0/
0,
02
1-
0.#
1-#
0;!
1:!
0-
1,
11#
0-#
1>!
0:!
10
0,
#40000
b111 !
b111 "
b101 !
b101 "
b101 $
b100 !
b100 "
b100 $
0C!
0A!
0Z!
0Q!
1P!
0H!
0G!
1F!
07"
0c!
0x
1p
0i
0o"
0n"
0m"
1w
0+"
14"
1b!
0a!
1d!
1`!
1e!
0w"
0&"
0E
0?
1?"
0I
0F
0v"
1u"
0}
0C"
0$!
0z
0<
0=
1|
1E
0,"
05"
0b!
0d!
0]!
18"
1F
1@"
1J
0B"
0F"
0q
0,#
0~
08"
1^!
1I
1K
0)#
1N
0&!
0#!
1f!
0_!
1@
0J
0G"
0p
0'!
0g!
0L
0e!
0K
0H"
0(!
1h!
0M
1#!
0~"
0##
0i!
0N
1U"
0P"
1j!
0O
0Q"
0o!
0k!
13#
1s!
0p!
1@!
12
01#
0w!
0t!
0>!
00
0x!
#50000
b101 !
b101 "
b101 $
1C!
1Z!
1H!
1A"
1q"
1o"
0u
0%"
1D
1+"
1w"
1C"
1?
1<
0E
1,"
18"
1F"
1q
1]!
08"
1-"
1)#
1i!
1N
1B"
10"
11!
1G"
1p
0j!
1O
11"
1.!
1H"
1o!
1k!
1+#
1g!
1L
1~"
0s!
1p!
12"
0h!
1M
0U"
1w!
1t!
13"
0N
1x!
1"#
03#
0T"
1N"
0@!
02
1O"
10#
1=!
1/
#60000
b111 !
b111 "
b111 $
b110 !
b110 "
b110 $
0C!
1A!
0Z!
1Q!
0H!
1G!
0A"
1/"
0-"
1D!
10!
1i
0o"
1p"
1m"
1%"
0+"
04"
1b!
1d!
1e!
1r"
1{"
1z"
0!!
1s"
1H
1&"
1E
1[!
0?
1v"
1}
0C"
00"
01!
0\!
1T!
0>
0&"
0E
0,"
15"
0W!
0u"
1Y!
1V!
0I
0F
0^!
0B"
0H
0F"
0q
01"
0.!
18"
0U!
0Y!
1F
0b!
0T!
1>
0`!
0e!
1W!
1J
1I
0)#
1N
0+#
0g!
0L
1X!
1`!
1e!
1U!
1Y!
1_!
0@
1a!
0d!
1b!
1K
0J
0G"
0p
02"
1h!
0M
0X!
0`!
0b!
0#!
0K
0H"
03"
0i!
0N
1#!
0~"
0"#
1j!
0O
0N"
1T"
0o!
0k!
0O"
1U"
1s!
0p!
0w!
0t!
00#
13#
0x!
0=!
1@!
0/
12
#70000
b111 !
b111 "
b111 $
1C!
1Z!
1H!
17"
0/"
1c!
0D!
00!
1l
0q"
0p"
1n"
0D
1+"
0v"
1|"
19"
1l!
1n!
0[!
1?
1\!
1*"
1=
1,"
1^!
1B"
1@
1<"
1t
1'#
1o!
1k!
0*"
1x
08"
1-"
0^!
0B"
0@
1C"
1n
1*#
0h!
1M
0s!
1p!
0-"
1$!
1z
09"
10"
11!
1@
0C"
0n
1F"
1q
1"!
1o
1="
1i!
0<"
1w!
1t!
00"
01!
1,#
1~
0t
11"
1.!
1n
0F"
0q
0"!
0o
1)#
1(#
0j!
1O
1>"
0*#
1x!
01"
0.!
1&!
0f!
1h!
0M
1+#
1g!
1L
1"!
1o
0)#
1N
0(#
1G"
0k!
1!#
0="
0+#
1'!
0i!
0N
12"
0h!
1M
1(#
0O
0G"
1H"
0U"
1P"
1N"
1I"
0>"
02"
1(!
1O
13"
1i!
1N
0H"
1~"
1Q"
1O"
1J"
0!#
03"
1##
1"#
0O
0~"
1U"
0P"
0N"
1M"
1L"
0I"
03#
0T"
1R"
1P"
0M"
0L"
0"#
0Q"
0O"
0J"
0@!
02
11#
10#
1-#
13#
1/#
1.#
0U"
1S"
1Q"
1T"
1N"
1I"
1>!
1=!
1:!
1@!
1<!
1;!
10
1/
1,
12
1.
1-
0/#
0.#
01#
00#
0-#
1U"
1O"
1J"
0<!
0;!
0>!
0=!
0:!
0.
0-
00
0/
0,
03#
12#
11#
0@!
1?!
1>!
02
11
10
13#
10#
1-#
1@!
1=!
1:!
12
1/
1,
#80000
b1111 !
b1111 "
b1011 !
b1011 "
b1001 !
b1001 "
b101 $
b1000 !
b1000 "
b100 $
0C!
0A!
0Z!
0Q!
0P!
1O!
0H!
0G!
0F!
1E!
07"
0c!
0x
0l
0i
0n"
0m"
0w
1u
0+"
14"
1b!
0a!
1d!
0e!
0|"
0{"
0z"
1y"
0s"
1E
0?
0?"
1v
1'"
0F
0}
1J
0B
1v"
1u"
1t"
0n
0l!
0$!
0z
0n!
1k!
0=
0|
0E
0,"
05"
0b!
0@
0V!
0W!
0@"
1{
1F
0("
1K
1C
1B"
0"!
0o
0'#
0,#
0~
0B"
1W!
1b!
0J
0#!
0(#
1O
0&!
1f!
0b!
0K
0'!
0g!
0L
1#!
0(!
1h!
0M
0##
0i!
0N
0R"
0P"
0N"
0I"
1j!
0O
0S"
0Q"
0O"
0J"
0o!
0k!
1s!
0p!
02#
01#
00#
0-#
0w!
0t!
0?!
0>!
0=!
0:!
01
00
0/
0,
0x!
#90000
b1001 !
b1001 "
b101 $
1C!
1Z!
1H!
1m
1k
1q"
1n"
0u
0%"
1D
1+"
0v"
1|"
1n
1r!
1?
1=
1&"
1E
1,"
1^!
1B"
1@
1"!
1o
0^!
0B"
0F
1-"
0@
1(#
0j!
1O
1@
10"
11!
1o!
1k!
11"
1.!
0s!
1p!
1+#
1g!
1L
1w!
1t!
12"
0h!
1M
1x!
13"
1i!
1N
1"#
0O
0T"
1R"
1M"
0U"
1S"
1/#
1<!
1.
03#
12#
0@!
1?!
02
11
#100000
b1011 !
b1011 "
b111 $
b1010 !
b1010 "
b110 $
0C!
1A!
0Z!
1Q!
0H!
1G!
1/"
0-"
1D!
10!
0m
0k
1i
1p"
1%"
0+"
04"
1b!
1a!
0d!
1e!
0|"
1{"
1!!
1s"
1H
0E
1[!
0?
1v"
0u"
1}
00"
01!
0n
0r!
0p!
0\!
1E
0,"
15"
0b!
0@
0U!
0Y!
0v"
1u"
0t"
1X!
0I
1B"
0>
0H
01"
0.!
0"!
0o
1p!
18"
1V!
0X!
0e!
0B"
1>
1U!
1Y!
1d!
1J
0_!
1@
1I
0+#
0g!
0L
0(#
1O
0W!
0d!
1_!
0@
0V!
1X!
1K
0J
02"
1h!
0M
1b!
1e!
1W!
1d!
0#!
0K
03"
0i!
0N
0b!
1#!
0"#
1j!
0O
1T"
0R"
0M"
0o!
0k!
1U"
0S"
1s!
0p!
0/#
0w!
0t!
0<!
0.
13#
02#
0x!
1@!
0?!
12
01
#110000
b1011 !
b1011 "
b111 $
1C!
1Z!
1H!
17"
0/"
1c!
0D!
00!
1l
1k
0q"
1o"
0p"
0n"
1m"
1u
0D
1+"
0w"
1|"
19"
1q!
1l!
1n!
1r!
0[!
1?
1R!
0<
1\!
1*"
0=
1T!
0>
1,"
08"
1@
1<"
1t
1&#
1'#
1o!
1k!
0s!
1p!
0*"
1x
1=
0]!
1-"
1^!
1B"
0U!
0Y!
0@
09"
1n
1*#
0h!
1M
0p!
1w!
1t!
0-"
1$!
1z
10"
11!
0_!
1@
1C"
1V!
0X!
0e!
0n
0<"
0t
1"!
1o
1="
0*#
1i!
1N
1x!
00"
01!
1,#
1~
11"
1.!
1`!
1e!
1n
1F"
1q
0W!
0d!
0l!
0l
0"!
0o
1h!
0M
1(#
0j!
1O
1>"
0="
01"
0.!
1&!
0f!
1+#
1g!
1L
0a!
1d!
1l!
1l
1"!
1o
1)#
1b!
0q!
0k
0'#
0n!
0(#
0k!
1!#
0>"
0+#
1'!
12"
0h!
1M
0b!
1q!
1k
1'#
1n!
1(#
0O
1G"
1u!
1j
0&#
0r!
1k!
0U"
1P"
1N"
1I"
0!#
02"
1(!
13"
0N
0u!
0j
1&#
1r!
0k!
1H"
1%#
1v!
1p!
1Q"
1O"
1J"
1U"
0P"
0N"
0I"
03"
1##
1"#
0%#
0v!
0p!
1~"
0t!
03#
0Q"
0O"
0J"
0"#
0U"
0T"
1L"
1I"
1t!
0@!
02
11#
10#
1-#
13#
1T"
1P"
0L"
0I"
1J"
1>!
1=!
1:!
1@!
10
1/
1,
12
01#
00#
0-#
03#
1.#
1Q"
0J"
0>!
0=!
0:!
0@!
1;!
00
0/
0,
02
1-
0.#
1-#
0;!
1:!
0-
1,
11#
0-#
1>!
0:!
10
0,
#120000
b1111 !
b1111 "
b1101 !
b1101 "
b101 $
b1100 !
b1100 "
b100 $
0C!
0A!
0Z!
0Q!
1P!
0H!
0G!
1F!
07"
0c!
0x
1p
0l
0k
0i
0o"
0m"
1w
0+"
14"
1b!
0d!
0e!
1w"
0|"
0{"
1z"
0&"
0E
0?
1?"
0I
0'"
1F
1v"
0u"
0}
0C"
0n
0q!
0l!
0$!
0z
0n!
0r!
1p!
1k!
0R!
1<
0T!
1|
1E
0,"
05"
18"
0@
1U!
1Y!
1X!
1'"
0F
1@"
1J
1("
0^!
0B"
0F"
0q
0"!
0o
0&#
0'#
0,#
0~
0=
1]!
08"
0Y!
1I
0X!
1e!
1d!
0("
1K
1@
0)#
1N
0(#
1O
0&!
0#!
1f!
0e!
0J
0d!
0G"
0p
0'!
0g!
0L
0K
0H"
0(!
1h!
0M
1#!
0~"
0##
0i!
0N
1U"
0P"
1j!
0O
0Q"
0o!
0k!
13#
1s!
0p!
1@!
12
01#
0w!
0t!
0>!
00
0x!
#130000
b1101 !
b1101 "
b101 $
1C!
1Z!
1H!
1A"
1m
1j
1q"
1o"
1n"
0u
0%"
1D
1+"
0w"
1|"
1C"
1n
1v!
1?
1R!
0<
1=
0E
1,"
0]!
18"
1_!
0@
1F"
1q
1"!
1o
0S!
0=
08"
1-"
1e!
1)#
1i!
1N
1(#
0j!
1O
1>
1^!
1B"
10"
11!
1l
1G"
1p
0O
1o!
1k!
11"
1.!
1n!
1H"
0s!
1p!
1+#
1g!
1L
1~"
1w!
1t!
12"
0h!
1M
0U"
1x!
13"
0N
1"#
03#
0T"
1N"
0@!
02
1O"
10#
1=!
1/
